{
  "images" : [
    {
      "idiom" : "universal",
      "scale" : "1x",
      "filename" : "white_wall_hash.png"
    },
    {
      "idiom" : "universal",
      "scale" : "2x",
      "filename" : "white_wall_hash_@2X.png"
    }
  ],
  "info" : {
    "version" : 1,
    "author" : "xcode"
  }
}